FP.utf8
…
df

## # A tibble: 27,820 x 12
##    country  year sex   age   suicides_no population `suicides/100k ~
##    <chr>   <dbl> <chr> <chr>       <dbl>      <dbl>            <dbl>
##  1 Albania  1987 male  15-2~          21     312900             6.71
##  2 Albania  1987 male  35-5~          16     308000             5.19
##  3 Albania  1987 fema~ 15-2~          14     289700             4.83
##  4 Albania  1987 male  75+ ~           1      21800             4.59
##  5 Albania  1987 male  25-3~           9     274300             3.28
##  6 Albania  1987 fema~ 75+ ~           1      35600             2.81
##  7 Albania  1987 fema~ 35-5~           6     278800             2.15
##  8 Albania  1987 fema~ 25-3~           4     257200             1.56
##  9 Albania  1987 male  55-7~           1     137500             0.73
## 10 Albania  1987 fema~ 5-14~           0     311000             0   
## # ... with 27,810 more rows, and 5 more variables: `country-year` <chr>, `HDI
## #   for year` <dbl>, `gdp_for_year ($)` <dbl>, `gdp_per_capita ($)` <dbl>,
## #   generation <chr>

The set_colnames function allows for renaming column names.

# Change column names
df <- df %>%
  set_colnames(c("Country", "year", "sex", "age range", "suicide_number", "total_population", "suicide_rate", "country_year","HDI","gdp_year","gdp_capita","generation"))
df

## # A tibble: 27,820 x 12
##    Country  year sex   `age range` suicide_number total_population suicide_rate
##    <chr>   <dbl> <chr> <chr>                <dbl>            <dbl>        <dbl>
##  1 Albania  1987 male  15-24 years             21           312900         6.71
##  2 Albania  1987 male  35-54 years             16           308000         5.19
##  3 Albania  1987 fema~ 15-24 years             14           289700         4.83
##  4 Albania  1987 male  75+ years                1            21800         4.59
##  5 Albania  1987 male  25-34 years              9           274300         3.28
##  6 Albania  1987 fema~ 75+ years                1            35600         2.81
##  7 Albania  1987 fema~ 35-54 years              6           278800         2.15
##  8 Albania  1987 fema~ 25-34 years              4           257200         1.56
##  9 Albania  1987 male  55-74 years              1           137500         0.73
## 10 Albania  1987 fema~ 5-14 years               0           311000         0   
## # ... with 27,810 more rows, and 5 more variables: country_year <chr>,
## #   HDI <dbl>, gdp_year <dbl>, gdp_capita <dbl>, generation <chr>
…
## # A tibble: 2 x 2
##   Country               avg_suiciderate
##   <chr>                           <dbl>
## 1 Dominica                            0
## 2 Saint Kitts and Nevis               0

# On average, the amount of gpd shared by one person in the country and its suicide data
df %>%
  group_by(Country) %>%
  mutate(mean_gdp = gdp_year/total_population)

## # A tibble: 27,820 x 13
## # Groups:   Country [101]
##    Country  year sex   `age range` suicide_number total_population suicide_rate
##    <chr>   <dbl> <chr> <chr>                <dbl>            <dbl>        <dbl>
##  1 Albania  1987 male  15-24 years             21           312900         6.71
##  2 Albania  1987 male  35-54 years             16           308000         5.19
##  3 Albania  1987 fema~ 15-24 years             14           289700         4.83
##  4 Albania  1987 male  75+ years                1            21800         4.59
##  5 Albania  1987 male  25-34 years              9           274300         3.28
##  6 Albania  1987 fema~ 75+ years                1            35600         2.81
##  7 Albania  1987 fema~ 35-54 years              6           278800         2.15
##  8 Albania  1987 fema~ 25-34 years              4           257200         1.56
##  9 Albania  1987 male  55-74 years              1           137500         0.73
## 10 Albania  1987 fema~ 5-14 years               0           311000         0   
## # ... with 27,810 more rows, and 6 more variables: country_year <chr>,
## #   HDI <dbl>, gdp_year <dbl>, gdp_capita <dbl>, generation <chr>,
## #   mean_gdp <dbl>
…
## On average, the number of people commit suicide amoung 100k people decreased by -0.08740015 pounds per year from 1985 to 2016.

If there was a null hypothesis of no relationship between suicide rate and year, I would reject that null hypothesis because there is a relationship between the two variables: Over time, the total suicide rate decreases by around -0.874 per year.

Now, we augment the df_fit_suicide, in which columns, such as predictions, residuals, etc. are added. Residuals is the difference between the observed value of the dependent variable and the predicted value. Fitted values are also known as predicted values. One way to check if your linear regression model is appropriate is to plot a graph of Residuals vs.Fitted Values. This graph will check for the linearity assumption. If the regression model is appropriate, the mean of residuals will be approximately 0.

The augment() function Documentation: - https://www.rdocumentation.org/packages/broom/versions/0.4.3/topics/augment Residuals: - http://www.r-tutor.com/elementary-statistics/simple-linear-regression/residual-plot

aug_df_suicide <- df_fit_suicide %>%
  augment()
aug_df_suicide

## # A tibble: 27,820 x 9
##    suicide_rate  year .fitted .se.fit .resid     .hat .sigma  .cooksd .std.resid
##           <dbl> <dbl>   <dbl>   <dbl>  <dbl>    <dbl>  <dbl>    <dbl>      <dbl>
##  1         6.71  1987    14.1   0.222  -7.35 0.000138   18.9  1.04e-5     -0.388
##  2         5.19  1987    14.1   0.222  -8.87 0.000138   18.9  1.51e-5     -0.468
##  3         4.83  1987    14.1   0.222  -9.23 0.000138   18.9  1.64e-5     -0.487
##  4         4.59  1987    14.1   0.222  -9.47 0.000138   18.9  1.72e-5     -0.500
##  5         3.28  1987    14.1   0.222 -10.8  0.000138   18.9  2.23e-5     -0.569
##  6         2.81  1987    14.1   0.222 -11.3  0.000138   18.9  2.43e-5     -0.594
##  7         2.15  1987    14.1   0.222 -11.9  0.000138   18.9  2.72e-5     -0.629
##  8         1.56  1987    14.1   0.222 -12.5  0.000138   18.9  3.00e-5     -0.660
##  9         0.73  1987    14.1   0.222 -13.3  0.000138   18.9  3.41e-5     -0.704
## 10         0     1987    14.1   0.222 -14.1  0.000138   18.9  3.80e-5     -0.742
## # ... with 27,810 more rows
…
